{
    "pa11y_results": {
        "documentTitle": "Welcome to CityLights! [Inaccessible Home Page]",
        "pageUrl": "http://localhost:3000/src/before/home.html",
        "issues": [
            {
                "code": "WCAG2AA.Principle3.Guideline3_1.3_1_1.H57.2",
                "context": "<html><head>\n<title>Welcome to CityLi...</html>",
                "message": "The html element should have a lang or xml:lang attribute which describes the language of the document.",
                "type": "error",
                "typeCode": 1,
                "selector": "html"
            },
            {
                "code": "WCAG2AA.Principle1.Guideline1_1.1_1_1.H37",
                "context": "<img src=\"./img/border_left_top.gif\" width=\"10px\" height=\"10px\">",
                "message": "Img element missing an alt attribute. Use the alt attribute to specify a short text alternative.",
                "type": "error",
                "typeCode": 1,
                "selector": "#page > table > tbody > tr > td > table > tbody > tr:nth-child(1) > td:nth-child(1) > img"
            },
            {
                "code": "WCAG2AA.Principle1.Guideline1_1.1_1_1.H37",
                "context": "<img src=\"./img/border_top.gif\" height=\"10px\">",
                "message": "Img element missing an alt attribute. Use the alt attribute to specify a short text alternative.",
                "type": "error",
                "typeCode": 1,
                "selector": "#page > table > tbody > tr > td > table > tbody > tr:nth-child(1) > td:nth-child(2) > img"
            },
            {
                "code": "WCAG2AA.Principle1.Guideline1_1.1_1_1.H37",
                "context": "<img src=\"./img/border_right_top.gif\" width=\"10px\" height=\"10px\">",
                "message": "Img element missing an alt attribute. Use the alt attribute to specify a short text alternative.",
                "type": "error",
                "typeCode": 1,
                "selector": "#page > table > tbody > tr > td > table > tbody > tr:nth-child(1) > td:nth-child(3) > img"
            },
            {
                "code": "WCAG2AA.Principle1.Guideline1_1.1_1_1.H37",
                "context": "<img src=\"./img/border_left.gif\" width=\"10px\">",
                "message": "Img element missing an alt attribute. Use the alt attribute to specify a short text alternative.",
                "type": "error",
                "typeCode": 1,
                "selector": "#page > table > tbody > tr > td > table > tbody > tr:nth-child(2) > td:nth-child(1) > img"
            },
            {
                "code": "WCAG2AA.Principle1.Guideline1_1.1_1_1.H37",
                "context": "<img src=\"./img/top_logo_next_end.gif\" width=\"24px\" height=\"86px\">",
                "message": "Img element missing an alt attribute. Use the alt attribute to specify a short text alternative.",
                "type": "error",
                "typeCode": 1,
                "selector": "#page > table > tbody > tr > td > table > tbody > tr:nth-child(2) > td:nth-child(2) > table:nth-child(1) > tbody > tr:nth-child(1) > td:nth-child(2) > img"
            },
            {
                "code": "WCAG2AA.Principle1.Guideline1_1.1_1_1.H37",
                "context": "<img src=\"./img/top_weather.gif\" width=\"128px\" height=\"86px\">",
                "message": "Img element missing an alt attribute. Use the alt attribute to specify a short text alternative.",
                "type": "error",
                "typeCode": 1,
                "selector": "#page > table > tbody > tr > td > table > tbody > tr:nth-child(2) > td:nth-child(2) > table:nth-child(1) > tbody > tr:nth-child(1) > td:nth-child(3) > img"
            },
            {
                "code": "WCAG2AA.Principle1.Guideline1_1.1_1_1.H37",
                "context": "<img src=\"./img/top_logo_next_start.gif\" width=\"22px\" height=\"86px\">",
                "message": "Img element missing an alt attribute. Use the alt attribute to specify a short text alternative.",
                "type": "error",
                "typeCode": 1,
                "selector": "#page > table > tbody > tr > td > table > tbody > tr:nth-child(2) > td:nth-child(2) > table:nth-child(1) > tbody > tr:nth-child(1) > td:nth-child(4) > img"
            },
            {
                "code": "WCAG2AA.Principle4.Guideline4_1.4_1_2.H91.Select.Name",
                "context": "<select onchange=\"location.href = this.value;\">\n            <option selected=\"...</select>",
                "message": "This select element does not have a name available to an accessibility API. Valid names are: label element, title attribute, aria-label attribute, aria-labelledby attribute.",
                "type": "error",
                "typeCode": 1,
                "selector": "#page > table > tbody > tr > td > table > tbody > tr:nth-child(2) > td:nth-child(2) > table:nth-child(1) > tbody > tr:nth-child(1) > td:nth-child(5) > select"
            },
            {
                "code": "WCAG2AA.Principle1.Guideline1_3.1_3_1.F68",
                "context": "<select onchange=\"location.href = this.value;\">\n            <option selected=\"...</select>",
                "message": "This form field should be labelled in some way. Use the label element (either with a \"for\" attribute or wrapped around the form field), or \"title\", \"aria-label\" or \"aria-labelledby\" attributes as appropriate.",
                "type": "error",
                "typeCode": 1,
                "selector": "#page > table > tbody > tr > td > table > tbody > tr:nth-child(2) > td:nth-child(2) > table:nth-child(1) > tbody > tr:nth-child(1) > td:nth-child(5) > select"
            },
            {
                "code": "WCAG2AA.Principle1.Guideline1_1.1_1_1.H37",
                "context": "<img src=\"./img/mark.gif\" width=\"158px\" height=\"7px\">",
                "message": "Img element missing an alt attribute. Use the alt attribute to specify a short text alternative.",
                "type": "error",
                "typeCode": 1,
                "selector": "#page > table > tbody > tr > td > table > tbody > tr:nth-child(2) > td:nth-child(2) > table:nth-child(1) > tbody > tr:nth-child(2) > td > img"
            },
            {
                "code": "WCAG2AA.Principle1.Guideline1_1.1_1_1.H37",
                "context": "<img src=\".img/marker2_w.gif\" width=\"78px\" height=\"1px\">",
                "message": "Img element missing an alt attribute. Use the alt attribute to specify a short text alternative.",
                "type": "error",
                "typeCode": 1,
                "selector": "#page > table > tbody > tr > td > table > tbody > tr:nth-child(2) > td:nth-child(2) > table:nth-child(1) > tbody > tr:nth-child(4) > td > img"
            },
            {
                "code": "WCAG2AA.Principle1.Guideline1_1.1_1_1.H37",
                "context": "<img src=\"./img/marker2_w.gif\" width=\"78px\" height=\"1px\">",
                "message": "Img element missing an alt attribute. Use the alt attribute to specify a short text alternative.",
                "type": "error",
                "typeCode": 1,
                "selector": "#page > table > tbody > tr > td > table > tbody > tr:nth-child(2) > td:nth-child(2) > table:nth-child(2) > tbody > tr > td:nth-child(1) > table > tbody > tr:nth-child(1) > td:nth-child(1) > img"
            },
            {
                "code": "WCAG2AA.Principle1.Guideline1_1.1_1_1.H37",
                "context": "<img src=\"./img/marker2_t.gif\" width=\"1\" height=\"30px\">",
                "message": "Img element missing an alt attribute. Use the alt attribute to specify a short text alternative.",
                "type": "error",
                "typeCode": 1,
                "selector": "#page > table > tbody > tr > td > table > tbody > tr:nth-child(2) > td:nth-child(2) > table:nth-child(2) > tbody > tr > td:nth-child(1) > table > tbody > tr:nth-child(1) > td:nth-child(2) > img"
            },
            {
                "code": "WCAG2AA.Principle1.Guideline1_1.1_1_1.H30.2",
                "context": "<a href=\"javascript:location.href='home.html';\" onfocus=\"blur();\"><img name=\"nav_home\" src=\"./img...</a>",
                "message": "Img element is the only content of the link, but is missing alt text. The alt text should describe the purpose of the link.",
                "type": "error",
                "typeCode": 1,
                "selector": "#home > a"
            },
            {
                "code": "WCAG2AA.Principle1.Guideline1_1.1_1_1.H37",
                "context": "<img src=\"./img/marker2_w.gif\" width=\"78px\" height=\"1px\">",
                "message": "Img element missing an alt attribute. Use the alt attribute to specify a short text alternative.",
                "type": "error",
                "typeCode": 1,
                "selector": "#page > table > tbody > tr > td > table > tbody > tr:nth-child(2) > td:nth-child(2) > table:nth-child(2) > tbody > tr > td:nth-child(1) > table > tbody > tr:nth-child(3) > td > img"
            },
            {
                "code": "WCAG2AA.Principle1.Guideline1_1.1_1_1.H30.2",
                "context": "<a href=\"javascript:location.href='news.html';\" onfocus=\"blur();\"><img src=\"./img/nav_news.gif\" n...</a>",
                "message": "Img element is the only content of the link, but is missing alt text. The alt text should describe the purpose of the link.",
                "type": "error",
                "typeCode": 1,
                "selector": "#news > a"
            },
            {
                "code": "WCAG2AA.Principle1.Guideline1_1.1_1_1.H37",
                "context": "<img src=\"./img/marker2_w.gif\" width=\"78px\" height=\"1px\">",
                "message": "Img element missing an alt attribute. Use the alt attribute to specify a short text alternative.",
                "type": "error",
                "typeCode": 1,
                "selector": "#page > table > tbody > tr > td > table > tbody > tr:nth-child(2) > td:nth-child(2) > table:nth-child(2) > tbody > tr > td:nth-child(1) > table > tbody > tr:nth-child(5) > td > img"
            },
            {
                "code": "WCAG2AA.Principle1.Guideline1_1.1_1_1.H30.2",
                "context": "<a href=\"javascript:location.href='tickets.html';\" onfocus=\"blur();\"><img name=\"nav_facts\" src=\"./im...</a>",
                "message": "Img element is the only content of the link, but is missing alt text. The alt text should describe the purpose of the link.",
                "type": "error",
                "typeCode": 1,
                "selector": "#tickets > a"
            },
            {
                "code": "WCAG2AA.Principle1.Guideline1_1.1_1_1.H37",
                "context": "<img src=\"./img/marker2_w.gif\" width=\"78px\" height=\"1px\">",
                "message": "Img element missing an alt attribute. Use the alt attribute to specify a short text alternative.",
                "type": "error",
                "typeCode": 1,
                "selector": "#page > table > tbody > tr > td > table > tbody > tr:nth-child(2) > td:nth-child(2) > table:nth-child(2) > tbody > tr > td:nth-child(1) > table > tbody > tr:nth-child(7) > td > img"
            },
            {
                "code": "WCAG2AA.Principle1.Guideline1_1.1_1_1.H30.2",
                "context": "<a href=\"javascript:location.href='survey.html';\" onfocus=\"blur();\"><img src=\"./img/nav_survey.gif\"...</a>",
                "message": "Img element is the only content of the link, but is missing alt text. The alt text should describe the purpose of the link.",
                "type": "error",
                "typeCode": 1,
                "selector": "#survey > a"
            },
            {
                "code": "WCAG2AA.Principle1.Guideline1_1.1_1_1.H37",
                "context": "<img src=\"./img/marker2_w.gif\" width=\"78px\" height=\"1px\">",
                "message": "Img element missing an alt attribute. Use the alt attribute to specify a short text alternative.",
                "type": "error",
                "typeCode": 1,
                "selector": "#page > table > tbody > tr > td > table > tbody > tr:nth-child(2) > td:nth-child(2) > table:nth-child(2) > tbody > tr > td:nth-child(1) > table > tbody > tr:nth-child(9) > td > img"
            },
            {
                "code": "WCAG2AA.Principle1.Guideline1_1.1_1_1.H37",
                "context": "<img src=\"./img/blank_5x5.gif\" width=\"20px\" height=\"5px\">",
                "message": "Img element missing an alt attribute. Use the alt attribute to specify a short text alternative.",
                "type": "error",
                "typeCode": 1,
                "selector": "#page > table > tbody > tr > td > table > tbody > tr:nth-child(2) > td:nth-child(2) > table:nth-child(2) > tbody > tr > td:nth-child(2) > img"
            },
            {
                "code": "WCAG2AA.Principle1.Guideline1_1.1_1_1.H37",
                "context": "<img src=\"./img/headline_middle.gif\" width=\"23\" height=\"24\" align=\"absmiddle\">",
                "message": "Img element missing an alt attribute. Use the alt attribute to specify a short text alternative.",
                "type": "error",
                "typeCode": 1,
                "selector": "#content > div:nth-child(2) > div:nth-child(1) > img"
            },
            {
                "code": "WCAG2AA.Principle1.Guideline1_1.1_1_1.H37",
                "context": "<img src=\"./img/headline_middle.gif\" width=\"23\" height=\"24\" align=\"absmiddle\">",
                "message": "Img element missing an alt attribute. Use the alt attribute to specify a short text alternative.",
                "type": "error",
                "typeCode": 1,
                "selector": "#content > div:nth-child(2) > div:nth-child(2) > img"
            },
            {
                "code": "WCAG2AA.Principle1.Guideline1_1.1_1_1.H37",
                "context": "<img src=\"./img/headline_middle.gif\" width=\"23\" height=\"24\" align=\"absmiddle\">",
                "message": "Img element missing an alt attribute. Use the alt attribute to specify a short text alternative.",
                "type": "error",
                "typeCode": 1,
                "selector": "#content > div:nth-child(2) > div:nth-child(3) > img"
            },
            {
                "code": "WCAG2AA.Principle1.Guideline1_1.1_1_1.H30.2",
                "context": "<a href=\"news.html\" onfocus=\"blur();\"><img src=\"./img/morearrow.gif\" ...</a>",
                "message": "Img element is the only content of the link, but is missing alt text. The alt text should describe the purpose of the link.",
                "type": "error",
                "typeCode": 1,
                "selector": "#content > div:nth-child(4) > div:nth-child(1) > span > a"
            },
            {
                "code": "WCAG2AA.Principle1.Guideline1_1.1_1_1.H30.2",
                "context": "<a href=\"news.html\" onfocus=\"blur();\"><img src=\"./img/morearrow.gif\" ...</a>",
                "message": "Img element is the only content of the link, but is missing alt text. The alt text should describe the purpose of the link.",
                "type": "error",
                "typeCode": 1,
                "selector": "#content > div:nth-child(4) > div:nth-child(2) > span > a"
            },
            {
                "code": "WCAG2AA.Principle1.Guideline1_1.1_1_1.H30.2",
                "context": "<a href=\"news.html\" onfocus=\"blur();\"><img src=\"./img/morearrow.gif\" ...</a>",
                "message": "Img element is the only content of the link, but is missing alt text. The alt text should describe the purpose of the link.",
                "type": "error",
                "typeCode": 1,
                "selector": "#content > div:nth-child(4) > div:nth-child(3) > span > a"
            },
            {
                "code": "WCAG2AA.Principle1.Guideline1_1.1_1_1.H37",
                "context": "<img src=\"./img/blank_5x5.gif\" width=\"20px\" height=\"5px\">",
                "message": "Img element missing an alt attribute. Use the alt attribute to specify a short text alternative.",
                "type": "error",
                "typeCode": 1,
                "selector": "#page > table > tbody > tr > td > table > tbody > tr:nth-child(2) > td:nth-child(2) > table:nth-child(2) > tbody > tr > td:nth-child(4) > img"
            },
            {
                "code": "WCAG2AA.Principle1.Guideline1_1.1_1_1.H37",
                "context": "<img src=\"./img/marker2_t.gif\" width=\"1px\" height=\"30px\">",
                "message": "Img element missing an alt attribute. Use the alt attribute to specify a short text alternative.",
                "type": "error",
                "typeCode": 1,
                "selector": "#page > table > tbody > tr > td > table > tbody > tr:nth-child(2) > td:nth-child(2) > table:nth-child(2) > tbody > tr > td:nth-child(5) > table > tbody > tr:nth-child(1) > td:nth-child(1) > img"
            },
            {
                "code": "WCAG2AA.Principle1.Guideline1_1.1_1_1.H37",
                "context": "<img src=\"./img/marker2_w.gif\" width=\"78px\" height=\"1px\">",
                "message": "Img element missing an alt attribute. Use the alt attribute to specify a short text alternative.",
                "type": "error",
                "typeCode": 1,
                "selector": "#page > table > tbody > tr > td > table > tbody > tr:nth-child(2) > td:nth-child(2) > table:nth-child(2) > tbody > tr > td:nth-child(5) > table > tbody > tr:nth-child(1) > td:nth-child(2) > img"
            },
            {
                "code": "WCAG2AA.Principle1.Guideline1_4.1_4_3.G18.Fail",
                "context": "<b>Free Penguins</b>",
                "message": "This element has insufficient contrast at this conformance level. Expected a contrast ratio of at least 4.5:1, but text in this element has a contrast ratio of 3.88:1. Recommendation: change text colour to #374a53.",
                "type": "error",
                "typeCode": 1,
                "selector": "#page > table > tbody > tr > td > table > tbody > tr:nth-child(2) > td:nth-child(2) > table:nth-child(2) > tbody > tr > td:nth-child(5) > table > tbody > tr:nth-child(2) > td > font > b"
            },
            {
                "code": "WCAG2AA.Principle1.Guideline1_1.1_1_1.H37",
                "context": "<img src=\"./img/teaser_right1.jpg\" width=\"150px\" height=\"106px\">",
                "message": "Img element missing an alt attribute. Use the alt attribute to specify a short text alternative.",
                "type": "error",
                "typeCode": 1,
                "selector": "#page > table > tbody > tr > td > table > tbody > tr:nth-child(2) > td:nth-child(2) > table:nth-child(2) > tbody > tr > td:nth-child(5) > table > tbody > tr:nth-child(3) > td > div > img"
            },
            {
                "code": "WCAG2AA.Principle1.Guideline1_1.1_1_1.H37",
                "context": "<img src=\"./img/marker2_w.gif\" width=\"78px\" height=\"1px\">",
                "message": "Img element missing an alt attribute. Use the alt attribute to specify a short text alternative.",
                "type": "error",
                "typeCode": 1,
                "selector": "#page > table > tbody > tr > td > table > tbody > tr:nth-child(2) > td:nth-child(2) > table:nth-child(2) > tbody > tr > td:nth-child(5) > table > tbody > tr:nth-child(6) > td > img"
            },
            {
                "code": "WCAG2AA.Principle1.Guideline1_4.1_4_3.G18.Fail",
                "context": "<b>More City Parks</b>",
                "message": "This element has insufficient contrast at this conformance level. Expected a contrast ratio of at least 4.5:1, but text in this element has a contrast ratio of 3.88:1. Recommendation: change text colour to #374a53.",
                "type": "error",
                "typeCode": 1,
                "selector": "#page > table > tbody > tr > td > table > tbody > tr:nth-child(2) > td:nth-child(2) > table:nth-child(2) > tbody > tr > td:nth-child(5) > table > tbody > tr:nth-child(7) > td > font > b"
            },
            {
                "code": "WCAG2AA.Principle1.Guideline1_1.1_1_1.H37",
                "context": "<img src=\"./img/teaser_right2.jpg\" width=\"150px\" height=\"154px\">",
                "message": "Img element missing an alt attribute. Use the alt attribute to specify a short text alternative.",
                "type": "error",
                "typeCode": 1,
                "selector": "#page > table > tbody > tr > td > table > tbody > tr:nth-child(2) > td:nth-child(2) > table:nth-child(2) > tbody > tr > td:nth-child(5) > table > tbody > tr:nth-child(8) > td > img"
            },
            {
                "code": "WCAG2AA.Principle1.Guideline1_1.1_1_1.H37",
                "context": "<img src=\"./img/border_right.gif\" width=\"10px\">",
                "message": "Img element missing an alt attribute. Use the alt attribute to specify a short text alternative.",
                "type": "error",
                "typeCode": 1,
                "selector": "#page > table > tbody > tr > td > table > tbody > tr:nth-child(2) > td:nth-child(3) > img"
            },
            {
                "code": "WCAG2AA.Principle1.Guideline1_1.1_1_1.H37",
                "context": "<img src=\"./img/border_bottom_left.gif\" width=\"10px\" height=\"10px\">",
                "message": "Img element missing an alt attribute. Use the alt attribute to specify a short text alternative.",
                "type": "error",
                "typeCode": 1,
                "selector": "#page > table > tbody > tr > td > table > tbody > tr:nth-child(3) > td:nth-child(1) > img"
            },
            {
                "code": "WCAG2AA.Principle1.Guideline1_1.1_1_1.H37",
                "context": "<img src=\"./img/border_bottom.gif\" height=\"10px\">",
                "message": "Img element missing an alt attribute. Use the alt attribute to specify a short text alternative.",
                "type": "error",
                "typeCode": 1,
                "selector": "#page > table > tbody > tr > td > table > tbody > tr:nth-child(3) > td:nth-child(2) > img"
            },
            {
                "code": "WCAG2AA.Principle1.Guideline1_1.1_1_1.H37",
                "context": "<img src=\"./img/border_bottom_right.gif\" width=\"10px\" height=\"10px\">",
                "message": "Img element missing an alt attribute. Use the alt attribute to specify a short text alternative.",
                "type": "error",
                "typeCode": 1,
                "selector": "#page > table > tbody > tr > td > table > tbody > tr:nth-child(3) > td:nth-child(3) > img"
            }
        ]
    }
}